1 1.80493567561 M
2 1.64263628184 D
3 1.42106146841 R
4 1.14315008287 V
5 0.884056777994 L
6 0.591621682261 S
7 0.393582392141 R
8 0.309966515564 A
9 0.267766281145 D
10 0.296680251236 K
11 0.34027736579 E
12 0.433915070561 R
13 0.438160701141 L
14 0.430332983198 L
15 0.399362073957 E
16 0.442008352855 L
17 0.442372274523 L
18 0.465353347318 K
19 0.453408139591 L
20 0.522640951791 P
21 0.539101786693 R
22 0.582554594377 Q
23 0.555944460635 L
24 0.606147606139 W
25 0.580416680145 G
26 0.563259463082 D
27 0.447218986969 F
28 0.403529274255 G
29 0.35237684008 R
30 0.330243178209 M
31 0.319714676657 Q
32 0.316392332656 Q
33 0.315194273713 A
34 0.275482937395 Y
35 0.272307610313 K
36 0.28418917921 Q
37 0.327558909127 Q
38 0.369175220696 S
39 0.481164649262 L
40 0.555145380074 L
41 0.586947704103 L
42 0.491045522412 H
43 0.442702067169 P
44 0.485979305668 D
45 0.744581705295 K
46 1.10212798613 G
47 1.0594253236 G
48 0.807532830227 S
49 0.428983704144 H
50 0.405512737159 A
51 0.431677899812 L
52 0.414197048183 M
53 0.377826041524 Q
54 0.333525336133 E
55 0.353853826917 L
56 0.378049957231 N
57 0.454585507906 S
58 0.509316304152 L
59 0.496059827209 W
60 0.41896261155 G
61 0.317236126474 T
62 0.280176523476 F
63 0.250536784754 K
64 0.265745392581 T
65 0.2821847931 E
66 0.330123398858 V
67 0.437435869316 Y
68 0.635853466833 N
69 0.997147294554 L
70 1.36235219455 R
71 1.90702007835 M
72 2.52693701844 N
73 3.23854596036 L
74 3.96609742184 G
75 4.43132182474 G
76 4.73236696172 T
77 4.43509810234 G
78 3.9292351815 F
79 2.58888337163 Q
80 1.47561477746 H
81 0.610091811666 H
