1 0.106745512441 M
2 0.0975640645707 D
3 0.0845074011954 R
4 0.0681295990194 V
5 0.0526325771027 L
6 0.0353546772028 S
7 0.0237220175839 R
8 0.0185919209265 A
9 0.0160109229706 D
10 0.0176835823903 K
11 0.020204921198 E
12 0.0256406367089 R
13 0.0258881832721 L
14 0.0253663938609 L
15 0.0236156472857 E
16 0.026281919672 L
17 0.0266104779052 L
18 0.0280114430059 K
19 0.0271015857258 L
20 0.0307475492764 P
21 0.0317612776724 R
22 0.0345356676546 Q
23 0.033584824708 L
24 0.0368892701448 W
25 0.0356255456773 G
26 0.0343448155918 D
27 0.0272060714192 F
28 0.0242999032315 G
29 0.0212097598143 R
30 0.0197489907874 M
31 0.0190501179731 Q
32 0.0188637922742 Q
33 0.0188634132324 A
34 0.0165787698094 Y
35 0.016321868051 K
36 0.016957832495 Q
37 0.0194558740316 Q
38 0.0218823058282 S
39 0.0285818627605 L
40 0.0331287108589 L
41 0.0353620137377 L
42 0.0297618174638 H
43 0.0270026450662 P
44 0.0294146919321 D
45 0.0455867642315 K
46 0.0683362261448 G
47 0.066049557555 G
48 0.0502289693044 S
49 0.0259163503217 H
50 0.0239670537352 A
51 0.0252538274515 L
52 0.0243170976389 M
53 0.0223927057656 Q
54 0.0200064747736 E
55 0.0212554702867 L
56 0.022621266864 N
57 0.0269253109196 S
58 0.0296895710545 L
59 0.0288693924264 W
60 0.024619060523 G
61 0.0191257356202 T
62 0.0171071307128 F
63 0.0152867600426 K
64 0.0161665593712 T
65 0.0170411271057 E
66 0.0197553507309 V
67 0.0258645406348 Y
68 0.0371892709236 N
69 0.0580683804065 L
70 0.0800595624033 R
71 0.11404261677 M
72 0.160094138426 N
73 0.219993454642 L
74 0.2887597623 G
75 0.331712473638 G
76 0.3549963052 T
77 0.321258238606 G
78 0.270621339448 F
79 0.168073530185 Q
80 0.0913426330921 H
81 0.0367540784001 H
